%YAML 1.1
%TAG !u! tag:unity3d.com,2011:
--- !u!1045 &1
EditorBuildSettings:
  m_ObjectHideFlags: 0
  serializedVersion: 2
  m_Scenes:
  - enabled: 1
    path: Assets/Scene/Title.unity
    guid: 776cc693feb4a7945aeeef0b9227ce94
  - enabled: 1
    path: Assets/Scene/Tutorial.unity
    guid: 10b1a3f4cb766b7438e9bccae547c138
  - enabled: 1
    path: Assets/Scene/Stage/Stage1.unity
    guid: 8703cb09c16a2d44aa8edd30daae03c0
  - enabled: 1
    path: Assets/Scene/Stage/Stage2.unity
    guid: 39c3c1f4619e14e488648352e17f4319
  - enabled: 1
    path: Assets/Scene/Stage/Stage3.unity
    guid: 150e84e9ed83e9e4c9f69ff77f627511
  - enabled: 1
    path: Assets/Scene/Boot.unity
    guid: fbaf18603ddffc94e9caa8507487a790
  - enabled: 1
    path: Assets/Scene/Clear.unity
    guid: ad7f5c86b3488944fa03814e9f09b140
